{
    "count": 171609,
    "next": "http://128.3.7.72:8000/jobs/?page=2",
    "previous": null,
    "results": [
            {
                  "jobnumber": 16,
                  "state": "running",
                  "QoS": "normal",
                  "partition": "savio",
                  "submit-date": "05-15-1996",
                  "end-date": "05-16-1996",
            }
      ]
}